…
The top 3 chocolate manufacturing countries are US, France, and Canada.
The top 3 known bean types are Trinitario, Criollo, and Forastero. The
top 5 bean origins are Venezuela, Ecuado, Peru, Madagascar, and
Dominican Republic, with the top 3 in South America, the fourth in
Africa, and the fifth in central America. This makes sense because US is
the largest manufacturer and they might import beans mainly from the
closest locations.

``` r
cacao %>%
  count(company_location) %>%
  arrange(desc(n))
```

    ## # A tibble: 60 x 2
    ##    company_location     n
    ##    <chr>            <int>
    ##  1 U.S.A.             764
    ##  2 France             156
    ##  3 Canada             125
    ##  4 U.K.                96
    ##  5 Italy               63
    ##  6 Ecuador             54
    ##  7 Australia           49
    ##  8 Belgium             40
    ##  9 Switzerland         38
    ## 10 Germany             35
    ## # ... with 50 more rows

``` r
cacao %>%
  count(bean_type) %>%
  arrange(desc(n))
```

    ## # A tibble: 42 x 2
    ##    bean_type                n
    ##    <chr>                <int>
    ##  1                        887
    ##  2 Trinitario             419
    ##  3 Criollo                153
    ##  4 Forastero               87
    ##  5 Forastero (Nacional)    52
    ##  6 Blend                   41
    ##  7 Criollo, Trinitario     39
    ##  8 Forastero (Arriba)      37
    ##  9 Criollo (Porcelana)     10
    ## 10 Trinitario, Criollo      9
    ## # ... with 32 more rows

``` r
cacao %>%
  count(broad_bean_origin) %>%
  arrange(desc(n))
```

    ## # A tibble: 101 x 2
    ##    broad_bean_origin      n
    ##    <chr>              <int>
    ##  1 Venezuela            214
    ##  2 Ecuador              193
    ##  3 Peru                 165
    ##  4 Madagascar           145
    ##  5 Dominican Republic   141
    ##  6                       73
    ##  7 Nicaragua             60
    ##  8 Brazil                58
    ##  9 Bolivia               57
    ## 10 Belize                49
    ## # ... with 91 more rows
…
